"Name","Surname","Year","FiscalCode","Role"
"lorenzo","gioielli",1970,,
"minello","gianni",1971,,
"passalacqua","pino",1972,,
"de","vittorio",1973,,
"d'agro'","conti",1974,,
"agro'",,1975,,
"nino","castelnuovo",1976,,
"capitani","giorgio",1977,,
"luigi","leoni",1978,,
"carlo","molfese",1979,,
"lydia","biondi",1980,,
"corrado","olmi",1981,,
"maria","jose",1982,,
"monica","fiorentini",1983,,
"edoardo","sala",1984,,
"fabio","jephcott",1985,,
"elisabetta","carta",1986,,
"fulvio","d'angelo",1987,,
"ornella","ghezzi",1988,,
"stephanis","de",1989,,
"luca","notari",1990,,
"fausta","rigo",1991,,
"perelli","luigi",1992,,
"frazzi","andrea",1993,,
"albano","gianfranco",1994,,
"longoni","angelo",1995,,
"di","anna",1996,,
"bava","lamberto",1997,,
"lepre","gianni",1998,,
"vicari","daniele",1999,,
"sorrentino","paolo",2000,,
"antonello","avallone",2001,,
"roberto","d'alessandro",2002,,
"sollima","stefano",2003,,
"dario","d'ambrosi",2004,,
"alberto","buccolini",2005,,
"paolo","orlandelli",2006,,
"capotondi","giuseppe",2007,,
"doyle","wayne",2008,,
"raffaele","esposito",2009,,
"m.","a.bader,c.giannotti,n.tornello,",2010,,
"cristina","aubry",2011,,
"stefano","messina",2012,,
"marco","rea",2013,,
"mino-sferra","sferra",2014,,
"filippo","valle",2015,,
"quilio","di",2016,,
"tullio","marco",2017,,
"franco","barbero",2018,,
"monica","cetti",2019,,
"elisabetta","bonaventura",2020,,
"sibilia","sydney",2021,,
"moretti","nanni",2022,,
"gagliardi","giuseppe",2023,,
"saviana","scalfi",2024,,
"sweet","alexis",2025,,
"cristina","cacace",2026,,
"gianna","coletti",2027,,
"giovanna","culetto",2028,,
"maiorca","donatella",2029,,
"mario","lucarelli",2030,,
"alleva","s.",2031,,
"tina","femiano",2032,,
"concetta","mazzocca",2033,,
"beatrice","palme",2034,,
"thomas","zinzi",2035,,
"leacche","gianni",2036,,
"luigi","attrice",2037,,
"gigi","attrice",2038,,
"claudia","abbate",2039,,
"simonetti","maurizio",2040,,
"celeste","nino",2041,,
"fabian","grutt",2042,,
"pesce","italo",2043,,
"marco","bellocchi",2044,,
"celeste","cristian",2045,,
"nicola","di",2046,,
"daniela","cenciotti",2047,,
"bambini","stefano",2048,,
"ornella","giusto",2049,,
"victor","vitale",2050,,
"gianni","ferreri",2051,,
"de","renato",2052,,
"francesca","ventura",2053,,
"mino","sferra",2054,,
"cosimo","sferra",2055,,
"grimaldi,","antonello",2056,,
"vullo,","monica",2057,,
"francesco","vitiello",2058,,
"marco","belocchi",2059,,
"stasio","di",2060,,
"gaudino,","lucio",2061,,
"cristian","autuoro",2062,,
"bard","adorno",2063,,
"lino","damiani",2064,,
"capone","alessandro",2065,,
"marco","prosperini",2066,,
"fabrizio","traversa",2067,,
"ferrari","alberto",2068,,
"minervini","ulisse",2069,,
"elia","carmine",2070,,
"giulia","revel",2071,,
"adriano","agrimi",2072,,
"thomas","adrian",2073,,
"capitani","g.",2074,,
"aristarco","tiziana",2075,,
"roberto","ceccacci",2076,,
"ania,","anna,",2077,,
"anna","jimskaya",2078,,
"faenza","roberto",2079,,
"lo","ambrogio",2080,,
"soavi","michele",2081,,
"tognazzi","ricky",2082,,
"piccinini","matteo",2083,,
"petrelli","matteo",2084,,
"marchione","paolo",2085,,
"parisi","luigi",2086,,
"coletta","paolo",2087,,
"cappuccio","eugenio",2088,,
"avati","pupi",2089,,
"claudia","campagnola",2090,,
"schnaas","andreas",2091,,
"e","amatucci",2092,,
"loy","nanny",2093,,
"silvio","spaccesi",2094,,
"laurenti","mariano",2095,,
"grassia","nini",2096,,
"porzio","salvatore",2097,,
"vanzina","carlo",2098,,
"damiani","damiano",2099,,
"salemme","vincenzo",2100,,
"fantasia","andrea",2101,,
"de","c.",2102,,
"belloni","pier",2103,,
"miccichÃ¨","francesco",2104,,
"tagliavia","fabio",2105,,
"carmine","di",2106,,
"belloni,","pier",2107,,
"ferrari","michele",2108,,
"enrico","baroni",2109,,
"mario","giorgetti",2110,,
"monica","seller",2111,,
"carol-carpanese","farres",2112,,
"nichetti","maurizio",2113,,
"maria","gianluca",2114,,
"arena","lello",2115,,
"silvia","gigli",2116,,
"costa","claudio",2117,,
"modugno","bruno",2118,,
"pingitore","pierfrancesco",2119,,
"frazzi","antonio",2120,,
"di","stefano",2121,,
"costa","fabrizio",2122,,
"chicco","max",2123,,
"chiarello","sophie",2124,,
"turco","marco",2125,,
"puglielli","eros",2126,,
"poeti","paolo",2127,,
"krissane","hedy",2128,,
"ribuoli","luca",2129,,
"soldini","silvio",2130,,
"inturri,","alessio",2131,,
"brando","giorgi",2132,,
"zaccaro","maurizio",2133,,
"costantini","daniele",2134,,
"anna","mantovani",2135,,
"jephcott","fabio",2136,,
"terracciano","vincenzo",2137,,
"carlo","croccolo",2138,,
"acocella","dario",2139,,
"francis","pardeilhan",2140,,
"domenico","severino",2141,,
"odorisio","luciano",2142,,
"samperi
luciano","salvatore",2143,,
"samperi,","salvatore",2144,,
"bonivento","claudio",2145,,
"luca","amorosino",2146,,
"fasoli","leonardo",2147,,
"samperi","salvatore",2148,,
"mertes","raffaele",2149,,
"sindoni","vittorio",2150,,
"benigni","roberto",2151,,
"tarrach","jurgen",2152,,
"a.","a.e",2153,,
"laudadio","francesco",2154,,
"lazotti","gianfranco",2155,,
"lazotti,Â donatella","Â gianfrancesco",2156,,
"mario","parodi",2157,,
"max","parodi",2158,,
"sanchez","ramon",2159,,
"vicario","francesco",2160,,
"pieraccioni","leonardo",2161,,
"sergio","tardioli",2162,,
"max","pitt",2163,,
"massimo","pittarello",2164,,
"fragasso","claudio",2165,,
"claudio","castana",2166,,
"brass","tinto",2167,,
